module realese-notes

go 1.13

require (
	github.com/dgrijalva/jwt-go v3.2.0+incompatible // indirect
	github.com/labstack/echo v3.3.10+incompatible
	github.com/labstack/gommon v0.3.0 // indirect
	github.com/valyala/fasttemplate v1.1.0 // indirect
	golang.org/x/crypto v0.0.0-20191227163750-53104e6ec876 // indirect
)
